{
    "count": 16257,
    "next": "http://54.183.16.194/bank_transactions?limit=20&offset=20",
    "previous": null,
    "results": [
        {
            "id": "269405df-03d5-447c-9fbc-6d8f721c5947",
            "block": {
                "id": "2e77e039-cc1b-43e2-8f2a-d6063406612a",
                "created_date": "2022-01-15T09:56:08.888570Z",
                "modified_date": "2022-01-15T09:56:08.888598Z",
                "balance_key": "b292db4aa024cb32b4509eff8ad492d40411a9806dddbcd188026e7569b2a6e1",
                "sender": "6e5ea8507e38be7250cde9b8ff1f7c8e39a1460de16b38e6f4d5562ae36b5c1a",
                "signature": "49aecc382ddd26d6d62787f7e6c1aeec3b345eae44e2fb67a603f32aa619fee7b3b3533a1ca5f1326562f0c2c8d41b2f008aa90fcd59050e7658f9c93bc2dc01"
            },
            "amount": 1,
            "fee": "BANK",
            "memo": "",
            "recipient": "982dcfc62db8f1733141c8f5c29e25c8b4489dbf237053d1589d9a3909037187"
        },
        {
            "id": "bf89d8df-6db8-416b-a76f-a3c029f923ef",
            "block": {
                "id": "2e77e039-cc1b-43e2-8f2a-d6063406612a",
                "created_date": "2022-01-15T09:56:08.888570Z",
                "modified_date": "2022-01-15T09:56:08.888598Z",
                "balance_key": "b292db4aa024cb32b4509eff8ad492d40411a9806dddbcd188026e7569b2a6e1",
                "sender": "6e5ea8507e38be7250cde9b8ff1f7c8e39a1460de16b38e6f4d5562ae36b5c1a",
                "signature": "49aecc382ddd26d6d62787f7e6c1aeec3b345eae44e2fb67a603f32aa619fee7b3b3533a1ca5f1326562f0c2c8d41b2f008aa90fcd59050e7658f9c93bc2dc01"
            },
            "amount": 2800,
            "fee": "",
            "memo": "TNB_TS_2314_05_01_2021",
            "recipient": "a2d73cf3b37a62276ade44a96860495510d0e7d7c468950d4e49ac8a62b3d31d"
        },
        {
            "id": "4af7f939-cff6-4ab5-a9a6-84674cdfa475",
            "block": {
                "id": "2e77e039-cc1b-43e2-8f2a-d6063406612a",
                "created_date": "2022-01-15T09:56:08.888570Z",
                "modified_date": "2022-01-15T09:56:08.888598Z",
                "balance_key": "b292db4aa024cb32b4509eff8ad492d40411a9806dddbcd188026e7569b2a6e1",
                "sender": "6e5ea8507e38be7250cde9b8ff1f7c8e39a1460de16b38e6f4d5562ae36b5c1a",
                "signature": "49aecc382ddd26d6d62787f7e6c1aeec3b345eae44e2fb67a603f32aa619fee7b3b3533a1ca5f1326562f0c2c8d41b2f008aa90fcd59050e7658f9c93bc2dc01"
            },
            "amount": 1,
            "fee": "PRIMARY_VALIDATOR",
            "memo": "",
            "recipient": "cafd36d7fc4eb7a7a2b2d242432b4af05a70a7fa54ba5bafcaf0a79a44aa9e43"
        },
        {
            "id": "60561bd6-b275-4c07-ab79-800a4aa583d4",
            "block": {
                "id": "9ae89086-14fe-4b4e-97dc-0bcfc38123af",
                "created_date": "2022-01-15T09:56:03.304016Z",
                "modified_date": "2022-01-15T09:56:03.304045Z",
                "balance_key": "c1e59dee2b6e918e5294853aff6267add6418848297361bf2e0411d0e359df0e",
                "sender": "6e5ea8507e38be7250cde9b8ff1f7c8e39a1460de16b38e6f4d5562ae36b5c1a",
                "signature": "2dcc5d3c5aaa4dba2e20e9bbd0d13ae63f9c37ccaa8a09ce8a02b7af28946300ca2ad944ca603cad5a7910fd8f7f70a71e65a4726d43561ac7bcd93833a9de06"
            },
            "amount": 2000,
            "fee": "",
            "memo": "TNB_TS_2321_06_01_2022",
            "recipient": "7053f27870d388b0bca4149fe72765172c3e6d1b4ffc7cd0149a296cbefe8f57"
        },
        {
            "id": "2c00149f-6514-4652-b487-f6b12a1a6de0",
            "block": {
                "id": "9ae89086-14fe-4b4e-97dc-0bcfc38123af",
                "created_date": "2022-01-15T09:56:03.304016Z",
                "modified_date": "2022-01-15T09:56:03.304045Z",
                "balance_key": "c1e59dee2b6e918e5294853aff6267add6418848297361bf2e0411d0e359df0e",
                "sender": "6e5ea8507e38be7250cde9b8ff1f7c8e39a1460de16b38e6f4d5562ae36b5c1a",
                "signature": "2dcc5d3c5aaa4dba2e20e9bbd0d13ae63f9c37ccaa8a09ce8a02b7af28946300ca2ad944ca603cad5a7910fd8f7f70a71e65a4726d43561ac7bcd93833a9de06"
            },
            "amount": 1,
            "fee": "BANK",
            "memo": "",
            "recipient": "982dcfc62db8f1733141c8f5c29e25c8b4489dbf237053d1589d9a3909037187"
        },
        {
            "id": "5a5ff87c-0f7b-4f79-976e-c99c1b315f70",
            "block": {
                "id": "9ae89086-14fe-4b4e-97dc-0bcfc38123af",
                "created_date": "2022-01-15T09:56:03.304016Z",
                "modified_date": "2022-01-15T09:56:03.304045Z",
                "balance_key": "c1e59dee2b6e918e5294853aff6267add6418848297361bf2e0411d0e359df0e",
                "sender": "6e5ea8507e38be7250cde9b8ff1f7c8e39a1460de16b38e6f4d5562ae36b5c1a",
                "signature": "2dcc5d3c5aaa4dba2e20e9bbd0d13ae63f9c37ccaa8a09ce8a02b7af28946300ca2ad944ca603cad5a7910fd8f7f70a71e65a4726d43561ac7bcd93833a9de06"
            },
            "amount": 1,
            "fee": "PRIMARY_VALIDATOR",
            "memo": "",
            "recipient": "cafd36d7fc4eb7a7a2b2d242432b4af05a70a7fa54ba5bafcaf0a79a44aa9e43"
        },
        {
            "id": "ae69e095-be6c-4157-b148-60eec79261a3",
            "block": {
                "id": "d72b6653-d6e6-4b11-9bf3-947908c9b389",
                "created_date": "2022-01-15T09:55:06.601693Z",
                "modified_date": "2022-01-15T09:55:06.601719Z",
                "balance_key": "3bb4e56eec8b195a4357522a25d2b13d6a2395707df0d250d3ce7be43687d9d4",
                "sender": "6e5ea8507e38be7250cde9b8ff1f7c8e39a1460de16b38e6f4d5562ae36b5c1a",
                "signature": "4948a28c1b7131d5cb04969a481e1d49da3cd55fbe1408f0c85f55668ac3a49360f09ff90ac61f64ee0336e641d1ef097184d5c02dba880c811844468065ce09"
            },
            "amount": 450,
            "fee": "",
            "memo": "TNB_TS_2203_16_12_2021",
            "recipient": "4b6b2d11f5cd03baa9cbd563e76d1209d4491b2b88186ab97b73460340c2a6ed"
        },
        {
            "id": "23efd977-fd0d-49dd-a3b7-2bc9ef3cf547",
            "block": {
                "id": "d72b6653-d6e6-4b11-9bf3-947908c9b389",
                "created_date": "2022-01-15T09:55:06.601693Z",
                "modified_date": "2022-01-15T09:55:06.601719Z",
                "balance_key": "3bb4e56eec8b195a4357522a25d2b13d6a2395707df0d250d3ce7be43687d9d4",
                "sender": "6e5ea8507e38be7250cde9b8ff1f7c8e39a1460de16b38e6f4d5562ae36b5c1a",
                "signature": "4948a28c1b7131d5cb04969a481e1d49da3cd55fbe1408f0c85f55668ac3a49360f09ff90ac61f64ee0336e641d1ef097184d5c02dba880c811844468065ce09"
            },
            "amount": 1,
            "fee": "BANK",
            "memo": "",
            "recipient": "982dcfc62db8f1733141c8f5c29e25c8b4489dbf237053d1589d9a3909037187"
        },
        {
            "id": "dd92d478-2905-4ba4-b16c-3d4e98ca2a4b",
            "block": {
                "id": "d72b6653-d6e6-4b11-9bf3-947908c9b389",
                "created_date": "2022-01-15T09:55:06.601693Z",
                "modified_date": "2022-01-15T09:55:06.601719Z",
                "balance_key": "3bb4e56eec8b195a4357522a25d2b13d6a2395707df0d250d3ce7be43687d9d4",
                "sender": "6e5ea8507e38be7250cde9b8ff1f7c8e39a1460de16b38e6f4d5562ae36b5c1a",
                "signature": "4948a28c1b7131d5cb04969a481e1d49da3cd55fbe1408f0c85f55668ac3a49360f09ff90ac61f64ee0336e641d1ef097184d5c02dba880c811844468065ce09"
            },
            "amount": 1,
            "fee": "PRIMARY_VALIDATOR",
            "memo": "",
            "recipient": "cafd36d7fc4eb7a7a2b2d242432b4af05a70a7fa54ba5bafcaf0a79a44aa9e43"
        },
        {
            "id": "254f20c0-f5ef-4daf-8d0b-22d2e148aec6",
            "block": {
                "id": "ca006614-2597-407b-805a-40f12f1cd4f3",
                "created_date": "2022-01-15T09:55:01.028955Z",
                "modified_date": "2022-01-15T09:55:01.028982Z",
                "balance_key": "d9bb7770605b1a6e8845e8f015a28470689a053489fce1ac19f7fd9e6c7c89a0",
                "sender": "6e5ea8507e38be7250cde9b8ff1f7c8e39a1460de16b38e6f4d5562ae36b5c1a",
                "signature": "3ef5deef0dc1404af9b5ed8bd3d293f8e114854a45ea284376fe56f39c634330519477b4f1b88e27bdd30bfa5e9f5c8b7d72fc21854e84347b9285f4ab14bb07"
            },
            "amount": 1,
            "fee": "BANK",
            "memo": "",
            "recipient": "982dcfc62db8f1733141c8f5c29e25c8b4489dbf237053d1589d9a3909037187"
        },
        {
            "id": "d6a92e23-6b48-433e-9109-29893198795d",
            "block": {
                "id": "ca006614-2597-407b-805a-40f12f1cd4f3",
                "created_date": "2022-01-15T09:55:01.028955Z",
                "modified_date": "2022-01-15T09:55:01.028982Z",
                "balance_key": "d9bb7770605b1a6e8845e8f015a28470689a053489fce1ac19f7fd9e6c7c89a0",
                "sender": "6e5ea8507e38be7250cde9b8ff1f7c8e39a1460de16b38e6f4d5562ae36b5c1a",
                "signature": "3ef5deef0dc1404af9b5ed8bd3d293f8e114854a45ea284376fe56f39c634330519477b4f1b88e27bdd30bfa5e9f5c8b7d72fc21854e84347b9285f4ab14bb07"
            },
            "amount": 6500,
            "fee": "",
            "memo": "TNB_TS_2256_23_12_2021",
            "recipient": "b1b809323627fcd16b778e1fd7c7da5922b8f0691d69ff7e3e581c8c41b2a82b"
        },
        {
            "id": "2f2debdf-b862-4a33-be4b-ab89b81a9dd7",
            "block": {
                "id": "ca006614-2597-407b-805a-40f12f1cd4f3",
                "created_date": "2022-01-15T09:55:01.028955Z",
                "modified_date": "2022-01-15T09:55:01.028982Z",
                "balance_key": "d9bb7770605b1a6e8845e8f015a28470689a053489fce1ac19f7fd9e6c7c89a0",
                "sender": "6e5ea8507e38be7250cde9b8ff1f7c8e39a1460de16b38e6f4d5562ae36b5c1a",
                "signature": "3ef5deef0dc1404af9b5ed8bd3d293f8e114854a45ea284376fe56f39c634330519477b4f1b88e27bdd30bfa5e9f5c8b7d72fc21854e84347b9285f4ab14bb07"
            },
            "amount": 1,
            "fee": "PRIMARY_VALIDATOR",
            "memo": "",
            "recipient": "cafd36d7fc4eb7a7a2b2d242432b4af05a70a7fa54ba5bafcaf0a79a44aa9e43"
        },
        {
            "id": "f29095bd-d21b-4a3a-9c25-8c4fe0128091",
            "block": {
                "id": "ded43acd-d55f-45fa-be3e-4da09f953896",
                "created_date": "2022-01-15T09:54:55.028276Z",
                "modified_date": "2022-01-15T09:54:55.028303Z",
                "balance_key": "e569fc6d39f0e8cc5a7214cf7a901ab458fe90f03126f16069b4c7c42e04e66c",
                "sender": "6e5ea8507e38be7250cde9b8ff1f7c8e39a1460de16b38e6f4d5562ae36b5c1a",
                "signature": "20185dae3d3570ed3fc7a8f654e8eb2cc230e30a4981b2a328ad85a01dbfd3d61ffebf9a0449110868012f004c6c91773532d589773cc273fd0dd1ca1f632805"
            },
            "amount": 1,
            "fee": "BANK",
            "memo": "",
            "recipient": "982dcfc62db8f1733141c8f5c29e25c8b4489dbf237053d1589d9a3909037187"
        },
        {
            "id": "2ae6a59c-6b87-4dec-965f-803e13ea3cb3",
            "block": {
                "id": "ded43acd-d55f-45fa-be3e-4da09f953896",
                "created_date": "2022-01-15T09:54:55.028276Z",
                "modified_date": "2022-01-15T09:54:55.028303Z",
                "balance_key": "e569fc6d39f0e8cc5a7214cf7a901ab458fe90f03126f16069b4c7c42e04e66c",
                "sender": "6e5ea8507e38be7250cde9b8ff1f7c8e39a1460de16b38e6f4d5562ae36b5c1a",
                "signature": "20185dae3d3570ed3fc7a8f654e8eb2cc230e30a4981b2a328ad85a01dbfd3d61ffebf9a0449110868012f004c6c91773532d589773cc273fd0dd1ca1f632805"
            },
            "amount": 6400,
            "fee": "",
            "memo": "TNB_TS_2287_29_12_2021",
            "recipient": "a3e779bdb64f28307177244ac2b42e209519c163cdd18c92c303a93642dcc00f"
        },
        {
            "id": "b617b06f-d2dd-4c06-947d-69a960bb3cc3",
            "block": {
                "id": "ded43acd-d55f-45fa-be3e-4da09f953896",
                "created_date": "2022-01-15T09:54:55.028276Z",
                "modified_date": "2022-01-15T09:54:55.028303Z",
                "balance_key": "e569fc6d39f0e8cc5a7214cf7a901ab458fe90f03126f16069b4c7c42e04e66c",
                "sender": "6e5ea8507e38be7250cde9b8ff1f7c8e39a1460de16b38e6f4d5562ae36b5c1a",
                "signature": "20185dae3d3570ed3fc7a8f654e8eb2cc230e30a4981b2a328ad85a01dbfd3d61ffebf9a0449110868012f004c6c91773532d589773cc273fd0dd1ca1f632805"
            },
            "amount": 1,
            "fee": "PRIMARY_VALIDATOR",
            "memo": "",
            "recipient": "cafd36d7fc4eb7a7a2b2d242432b4af05a70a7fa54ba5bafcaf0a79a44aa9e43"
        },
        {
            "id": "40e56948-d9e8-47f2-8928-c30203ccaee1",
            "block": {
                "id": "d2c1a065-406c-427e-93fd-49bffad5010e",
                "created_date": "2022-01-15T09:54:48.865656Z",
                "modified_date": "2022-01-15T09:54:48.865682Z",
                "balance_key": "18348bc802f488342e91a5430d2eb2dcb0a9c0ec20a7297d4da96721dd49f48d",
                "sender": "6e5ea8507e38be7250cde9b8ff1f7c8e39a1460de16b38e6f4d5562ae36b5c1a",
                "signature": "45418ff9b5f979b4a3cdb9a8d759dcb985e636e981045246b4954594b2232b3418dc6f44723fa83561253d90bb498da368a43b6f007d9e96539dc6e3224a3b0b"
            },
            "amount": 7800,
            "fee": "",
            "memo": "TNB_TS_2313_05_01_2022",
            "recipient": "0d8a4c42ece012b528dda5f469a4706d24459e2eee5a867ff5394cf869466bbe"
        },
        {
            "id": "1a368e2d-7b89-4c74-9b9e-be0039afdfab",
            "block": {
                "id": "d2c1a065-406c-427e-93fd-49bffad5010e",
                "created_date": "2022-01-15T09:54:48.865656Z",
                "modified_date": "2022-01-15T09:54:48.865682Z",
                "balance_key": "18348bc802f488342e91a5430d2eb2dcb0a9c0ec20a7297d4da96721dd49f48d",
                "sender": "6e5ea8507e38be7250cde9b8ff1f7c8e39a1460de16b38e6f4d5562ae36b5c1a",
                "signature": "45418ff9b5f979b4a3cdb9a8d759dcb985e636e981045246b4954594b2232b3418dc6f44723fa83561253d90bb498da368a43b6f007d9e96539dc6e3224a3b0b"
            },
            "amount": 1,
            "fee": "BANK",
            "memo": "",
            "recipient": "982dcfc62db8f1733141c8f5c29e25c8b4489dbf237053d1589d9a3909037187"
        },
        {
            "id": "43167f3d-8419-47c7-ba46-d1f14f7e828b",
            "block": {
                "id": "d2c1a065-406c-427e-93fd-49bffad5010e",
                "created_date": "2022-01-15T09:54:48.865656Z",
                "modified_date": "2022-01-15T09:54:48.865682Z",
                "balance_key": "18348bc802f488342e91a5430d2eb2dcb0a9c0ec20a7297d4da96721dd49f48d",
                "sender": "6e5ea8507e38be7250cde9b8ff1f7c8e39a1460de16b38e6f4d5562ae36b5c1a",
                "signature": "45418ff9b5f979b4a3cdb9a8d759dcb985e636e981045246b4954594b2232b3418dc6f44723fa83561253d90bb498da368a43b6f007d9e96539dc6e3224a3b0b"
            },
            "amount": 1,
            "fee": "PRIMARY_VALIDATOR",
            "memo": "",
            "recipient": "cafd36d7fc4eb7a7a2b2d242432b4af05a70a7fa54ba5bafcaf0a79a44aa9e43"
        },
        {
            "id": "634b0b66-197b-40eb-81b9-216aba3dfa1b",
            "block": {
                "id": "51c30555-8b28-43c6-937b-af70cfa7376d",
                "created_date": "2022-01-15T09:54:41.963598Z",
                "modified_date": "2022-01-15T09:54:41.963632Z",
                "balance_key": "87a9a5572dcb65305ba97d08e9bdb5f9ec3bcc8439daa8ae6d03e7ed7983218f",
                "sender": "6e5ea8507e38be7250cde9b8ff1f7c8e39a1460de16b38e6f4d5562ae36b5c1a",
                "signature": "bd2f35a078e1f8e34dc595d028e8751072775a593e50d3d690c190843e094e486c5c53a7c0c3f05217e59de3b2c6b7114e373a6522d4f2582dc7d157f0937602"
            },
            "amount": 1,
            "fee": "BANK",
            "memo": "",
            "recipient": "982dcfc62db8f1733141c8f5c29e25c8b4489dbf237053d1589d9a3909037187"
        },
        {
            "id": "b588253c-7670-4031-b5d7-59647d6ee115",
            "block": {
                "id": "51c30555-8b28-43c6-937b-af70cfa7376d",
                "created_date": "2022-01-15T09:54:41.963598Z",
                "modified_date": "2022-01-15T09:54:41.963632Z",
                "balance_key": "87a9a5572dcb65305ba97d08e9bdb5f9ec3bcc8439daa8ae6d03e7ed7983218f",
                "sender": "6e5ea8507e38be7250cde9b8ff1f7c8e39a1460de16b38e6f4d5562ae36b5c1a",
                "signature": "bd2f35a078e1f8e34dc595d028e8751072775a593e50d3d690c190843e094e486c5c53a7c0c3f05217e59de3b2c6b7114e373a6522d4f2582dc7d157f0937602"
            },
            "amount": 500,
            "fee": "",
            "memo": "TNB_TS_2320_05_01_2022",
            "recipient": "b1b809323627fcd16b778e1fd7c7da5922b8f0691d69ff7e3e581c8c41b2a82b"
        }
    ]
}